{
  "censors": [
    "OL225086A",
    "OL23919A",
    "test",
    "OL23919B"
  ],
  "openlibrary": {
    "baseurl": "https://openlibrary.org",
    "resultlimit": 700
  },
  "server": {
    "addr": ":8080",
    "baseapiurl": "api",
    "metricsurl": "metrics",
    "swaggerurl": "swagger"
  }
}